20
73 28 6 3 Wien 0 0 0
63 10 6 3 Graz 0 0 0
50 30 6 3 Linz 0 0 0
37 22 6 3 Salzburg 0 0 0
19 14 6 3 Innsbruck 0 0 0
50 3 6 3 Klagenfurt 0 0 0
47 28 6 3 Wels 0 0 0
46 3 6 3 Villach 0 0 0
65 29 6 3 SanktPölten 0 0 0
1 16 6 3 Dornbirn 0 0 0
71 22 6 3 WienerNeustadt 0 0 0
52 26 6 3 Steyr 0 0 0
0 13 6 3 Feldkirch 0 0 0
1 17 6 3 Bregenz 0 0 0
65 7 6 3 Wolfsberg 0 0 0
59 15 6 3 Leoben 0 0 0
71 25 6 3 Baden 0 0 0
72 30 6 3 Klosterneuburg 0 0 0
50 29 6 3 Traun 0 0 0
65 32 6 3 KremsanderDonau 0 0 0
